{
  "home": {
    "header": {
      "data": {},
      "style": {}
    },
    "banner": {
      "data": {
        "title" : "A Clean & Minimal Landing Template",
        "description" : "Ut enim ad minima veniam quis nostrum exercitationem ullam corporis at suscipit laboriosam nisi ut aliquid a commodi consequatur Quis autem.",
        "img" : "",
        "logo" : "mdi mdi-pinwheel mdi-spin text-white h1"
      },
      "style": {}
    },
    "about": {
      "data": {},
      "style": {}
    },
    "service": {
      "data": {
        "title" : "Our Services",
        "items": [
          {
            "title": "Digital Design",
            "icon": "mdi mdi-database",
            "description": "Some quick example text to build on the card title and make up the bulk of the card's content. Moltin gives you the platform."
          },
          {
            "title": "Unlimited Colors",
            "icon": "mdi mdi-palette",
            "description": "Credibly brand standards compliant users without extensible services. Anibh euismod tincidunt ut laoreet Ipsum passage."
          },
          {
            "title": "Strategy Solutions",
            "icon": "mdi mdi-finance",
            "description": "Separated they live in Bookmarksgrove right at the coast of the Semantics, a large language ocean necessary regelialia."
          },
          {
            "title": "Awesome Support",
            "icon": "mdi mdi-yin-yang",
            "description": "It is a paradisematic country, in which roasted parts of sentences fly into your mouth leave for the far World."
          },
          {
            "title": "Truly Multipurpose",
            "icon": "mdi mdi-apple-keyboard-command",
            "description": "Even the all-powerful Pointing has no control about the blind texts it is an almost unorthographic."
          },
          {
            "title": "Easy to customize",
            "icon": "mdi mdi-hexagon-multiple",
            "description": "Question Marks and devious Semikoli, but the Little Blind Text didn’t listen. She packed her seven versalia."
          }
        ]
      },
      "style": {}
    },
    "contact": {
      "data": {
        "title": "Get In Touch",
        "description":"We thrive when coming up with innovative ideas but also understand that a smart concept should be supported with measurable results.",
        "success": "We received your message and you'll hear from us soon. Thank You!",
        "details":{
            "address":[
                "4461 Cedar Street Moro, AR 72368"
            ],
            "phone":"(123) 456-7890",
            "email":"name@example.com",
            "hours":"Mon - Sat: 9:00 AM to 5:00 PM"
        }
      },
      "style": {}
    },
    "footer": {
      "data": {
        "title":"© 2016. Rekamy. All Rights Reserved. Designed, Developed & Maintained by Rekamy Resources Sdn. Bhd",
        "img" : ""
      },
      "style": {}
    }
  },
  "order": {
    "data": {
      "title": "",
      "description": "Order Form",
      "image": "assets/lib/images/bg-about.png",
      "details": {
          "title": "Order Form",
          "description": "Condimentum auctor ante sed interdum proin viverra sed lectus et iaculis maecenas tortor lorem bibendum pretium."
      }
    },
    "style": {}
}
}
